{
    "name": "lang-cz",
    "title": "Czech [Core]",
    "description": "Czech language support for Foundry VTT",
    "version": "0.7.6",
    "minimumCoreVersion" : "0.6.5",
    "compatibleCoreVersion" : "0.7.6",
    "author": "Mrkew#3758, Team Klan Zephyra, Yancho, Exi, kainashiCZ, DeznekCZ",
    "scripts": [],
    "styles": ["style.css"],
    "packs": [],

    "languages": [
      {
        "lang": "cs",
        "name": "Čeština",
        "path": "cs.json"
      }
    ],

    "url": "https://gitlab.com/ptoseklukas/foundryvtt-lang-cs-cz",
    "manifest": "https://gitlab.com/ptoseklukas/foundryvtt-lang-cs-cz/raw/master/cs-CZ/module.json",
    "download": "https://gitlab.com/ptoseklukas/foundryvtt-lang-cs-cz/-/jobs/artifacts/master/raw/cs-CZ.zip?job=build"
  }

